{
  "books": [
    {
      "favorited": false,
      "first_product_shop_info": null,
      "id": 157828,
      "images": {
        "main": "https://d.scdn.gr/images/sku_main_images/000157/157828/medium_20160720204803_deste_i_trapoula_tis_katinas.jpeg"
      },
      "main_author": "\u039c\u03ac\u03c1\u03b1 \u039c\u03b5\u03ca\u03bc\u03b1\u03c1\u03af\u03b4\u03b7",
      "main_author_id": 42560,
      "name": "Deste, \u03b7 \u03c4\u03c1\u03ac\u03c0\u03bf\u03c5\u03bb\u03b1 \u03c4\u03b7\u03c2 \u039a\u03b1\u03c4\u03af\u03bd\u03b1\u03c2",
      "price_max": 15.0,
      "price_min": 11.45,
      "reviews_count": 0,
      "reviewscore": 0.0,
      "shop_count": 4
    },
    {
      "favorited": false,
      "first_product_shop_info": null,
      "id": 350016,
      "images": {
        "main": "https://d.scdn.gr/images/sku_main_images/000350/350016/medium_20160722133839_channeling_2.jpeg"
      },
      "main_author": "\u0391\u03bd\u03b1\u03c3\u03c4\u03b1\u03c3\u03af\u03b1 \u0392\u03bf\u03c5\u03bb\u03b3\u03b1\u03c1\u03bf\u03c0\u03bf\u03cd\u03bb\u03bf\u03c5",
      "main_author_id": 87009,
      "name": "Channeling 2",
      "price_max": 20.0,
      "price_min": 15.33,
      "reviews_count": 0,
      "reviewscore": 0.0,
      "shop_count": 7
    },
    {
      "favorited": false,
      "first_product_shop_info": null,
      "id": 5981528,
      "images": {
        "main": "https://c.scdn.gr/images/sku_main_images/005981/5981528/medium_20160723143931_kartes_taro.jpeg"
      },
      "main_author": "Arthur E. Waite",
      "main_author_id": 49976,
      "name": "\u039a\u03ac\u03c1\u03c4\u03b5\u03c2 \u03c4\u03b1\u03c1\u03ce",
      "price_max": 23.0,
      "price_min": 19.0,
      "reviews_count": 0,
      "reviewscore": 0.0,
      "shop_count": 3
    },
    {
      "favorited": false,
      "first_product_shop_info": null,
      "id": 123194,
      "images": {
        "main": "https://a.scdn.gr/images/sku_main_images/000123/123194/medium_20160720013841_to_mystiko.jpeg"
      },
      "main_author": "Rhonda Byrne",
      "main_author_id": 69398,
      "name": "\u03a4\u03bf \u03bc\u03c5\u03c3\u03c4\u03b9\u03ba\u03cc",
      "price_max": 13.47,
      "price_min": 10.3,
      "reviews_count": 0,
      "reviewscore": 0.0,
      "shop_count": 4
    },
    {
      "favorited": false,
      "first_product_shop_info": null,
      "id": 8821467,
      "images": {
        "main": "https://c.scdn.gr/images/sku_main_images/008821/8821467/medium_20160723200725_o_nomos_tis_epitychias.jpeg"
      },
      "main_author": "Napoleon Hill",
      "main_author_id": 8136,
      "name": "\u039f \u03bd\u03cc\u03bc\u03bf\u03c2 \u03c4\u03b7\u03c2 \u03b5\u03c0\u03b9\u03c4\u03c5\u03c7\u03af\u03b1\u03c2",
      "price_max": 39.06,
      "price_min": 30.21,
      "reviews_count": 0,
      "reviewscore": 0.0,
      "shop_count": 7
    },
    {
      "favorited": false,
      "first_product_shop_info": null,
      "id": 12830746,
      "images": {
        "main": "https://b.scdn.gr/images/sku_main_images/012830/12830746/medium_20170920010445_imerologio_2018_zodia.jpeg"
      },
      "main_author": "\u03a7\u03c1\u03b9\u03c3\u03c4\u03af\u03bd\u03b1 \u0398\u03b5\u03bf\u03c7\u03ac\u03c1\u03b7",
      "main_author_id": 59868,
      "name": "\u0397\u03bc\u03b5\u03c1\u03bf\u03bb\u03cc\u03b3\u03b9\u03bf 2018: \u0396\u03ce\u03b4\u03b9\u03b1",
      "price_max": 10.0,
      "price_min": 7.2,
      "reviews_count": 0,
      "reviewscore": 0.0,
      "shop_count": 9
    },
    {
      "favorited": false,
      "first_product_shop_info": null,
      "id": 184827,
      "images": {
        "main": "https://b.scdn.gr/images/sku_main_images/000184/184827/medium_20160721103435_platonos_politeia.jpeg"
      },
      "main_author": "\u03a7\u03c1\u03ae\u03c3\u03c4\u03bf\u03c2 \u0393. \u03a7\u03c1\u03b7\u03c3\u03c4\u03af\u03b4\u03b7\u03c2",
      "main_author_id": 33582,
      "name": "\u03a0\u03bb\u03ac\u03c4\u03c9\u03bd\u03bf\u03c2 \u03a0\u03bf\u03bb\u03b9\u03c4\u03b5\u03af\u03b1",
      "price_max": 9.23,
      "price_min": 7.69,
      "reviews_count": 0,
      "reviewscore": 0.0,
      "shop_count": 5
    },
    {
      "favorited": false,
      "first_product_shop_info": null,
      "id": 10737407,
      "images": {
        "main": "https://b.scdn.gr/images/sku_main_images/010737/10737407/medium_20161230005809_erotika_voithimata.jpeg"
      },
      "main_author": "\u039d\u03b5\u03ba\u03c4\u03b1\u03c1\u03af\u03b1 \u03a6\u03b9\u03bf\u03bb\u03b9\u03c4\u03ac\u03ba\u03b7",
      "main_author_id": 116342,
      "name": "\u0395\u03c1\u03c9\u03c4\u03b9\u03ba\u03ac \u03b2\u03bf\u03b7\u03b8\u03ae\u03bc\u03b1\u03c4\u03b1",
      "price_max": 10.81,
      "price_min": 8.4,
      "reviews_count": 0,
      "reviewscore": 0.0,
      "shop_count": 7
    },
    {
      "favorited": false,
      "first_product_shop_info": null,
      "id": 136252,
      "images": {
        "main": "https://b.scdn.gr/images/sku_main_images/000136/136252/medium_20160720083318_to_apolyto_vivlio_gia_ti_glossa_tou_somatos.jpeg"
      },
      "main_author": "Allan Pease",
      "main_author_id": 30245,
      "name": "\u03a4\u03bf \u03b1\u03c0\u03cc\u03bb\u03c5\u03c4\u03bf \u03b2\u03b9\u03b2\u03bb\u03af\u03bf \u03b3\u03b9\u03b1 \u03c4\u03b7 \u03b3\u03bb\u03ce\u03c3\u03c3\u03b1 \u03c4\u03bf\u03c5 \u03c3\u03ce\u03bc\u03b1\u03c4\u03bf\u03c2",
      "price_max": 16.78,
      "price_min": 12.95,
      "reviews_count": 0,
      "reviewscore": 0.0,
      "shop_count": 6
    },
    {
      "favorited": false,
      "first_product_shop_info": null,
      "id": 13414248,
      "images": {
        "main": "https://b.scdn.gr/assets/schwartz/books/no-cover-big.png"
      },
      "main_author": "Yuval Noah Harari",
      "main_author_id": 113432,
      "name": "Homo Deus",
      "price_max": 25.0,
      "price_min": 16.15,
      "reviews_count": 0,
      "reviewscore": 0.0,
      "shop_count": 7
    },
    {
      "favorited": false,
      "first_product_shop_info": null,
      "id": 229870,
      "images": {
        "main": "https://d.scdn.gr/images/sku_main_images/000229/229870/medium_20160721215122_i_ermineia_ton_oneiron.jpeg"
      },
      "main_author": "1856-1939 Sigmund Freud",
      "main_author_id": 5650,
      "name": "\u0397 \u03b5\u03c1\u03bc\u03b7\u03bd\u03b5\u03af\u03b1 \u03c4\u03c9\u03bd \u03bf\u03bd\u03b5\u03af\u03c1\u03c9\u03bd",
      "price_max": 31.0,
      "price_min": 13.2,
      "reviews_count": 0,
      "reviewscore": 0.0,
      "shop_count": 5
    },
    {
      "favorited": false,
      "first_product_shop_info": null,
      "id": 238154,
      "images": {
        "main": "https://a.scdn.gr/images/sku_main_images/000238/238154/medium_20160722001438_ginete_ploysioi.jpeg"
      },
      "main_author": "Napoleon Hill",
      "main_author_id": 8136,
      "name": "\u0393\u03af\u03bd\u03b5\u03c4\u03b5 \u03c0\u03bb\u03bf\u03cd\u03c3\u03b9\u03bf\u03b9",
      "price_max": 18.0,
      "price_min": 12.24,
      "reviews_count": 1,
      "reviewscore": 5.0,
      "shop_count": 11
    },
    {
      "favorited": false,
      "first_product_shop_info": null,
      "id": 6251558,
      "images": {
        "main": "https://b.scdn.gr/images/sku_main_images/006251/6251558/medium_20160723151347_xypniste_to_giganta_mesa_sas.jpeg"
      },
      "main_author": "Anthony Robbins",
      "main_author_id": 44857,
      "name": "\u039e\u03c5\u03c0\u03bd\u03ae\u03c3\u03c4\u03b5 \u03c4\u03bf \u03b3\u03af\u03b3\u03b1\u03bd\u03c4\u03b1 \u03bc\u03ad\u03c3\u03b1 \u03c3\u03b1\u03c2",
      "price_max": 19.9,
      "price_min": 13.47,
      "reviews_count": 0,
      "reviewscore": 0.0,
      "shop_count": 10
    },
    {
      "favorited": false,
      "first_product_shop_info": null,
      "id": 10685865,
      "images": {
        "main": "https://c.scdn.gr/images/sku_main_images/010685/10685865/medium_20161222005721_to_paichnidi.jpeg"
      },
      "main_author": "Neil Strauss",
      "main_author_id": 63074,
      "name": "\u03a4\u03bf \u03c0\u03b1\u03b9\u03c7\u03bd\u03af\u03b4\u03b9",
      "price_max": 15.75,
      "price_min": 13.76,
      "reviews_count": 0,
      "reviewscore": 0.0,
      "shop_count": 8
    },
    {
      "favorited": false,
      "first_product_shop_info": null,
      "id": 211148,
      "images": {
        "main": "https://a.scdn.gr/images/sku_main_images/000211/211148/medium_20160721170359_oi_7_synitheies_ton_exairetika_apotelesmatikon_anthropon.jpeg"
      },
      "main_author": "Stephen R. Covey",
      "main_author_id": 25526,
      "name": "\u039f\u03b9 7 \u03c3\u03c5\u03bd\u03ae\u03b8\u03b5\u03b9\u03b5\u03c2 \u03c4\u03c9\u03bd \u03b5\u03be\u03b1\u03b9\u03c1\u03b5\u03c4\u03b9\u03ba\u03ac \u03b1\u03c0\u03bf\u03c4\u03b5\u03bb\u03b5\u03c3\u03bc\u03b1\u03c4\u03b9\u03ba\u03ce\u03bd \u03b1\u03bd\u03b8\u03c1\u03ce\u03c0\u03c9\u03bd",
      "price_max": 29.5,
      "price_min": 15.31,
      "reviews_count": 0,
      "reviewscore": 0.0,
      "shop_count": 4
    },
    {
      "favorited": false,
      "first_product_shop_info": null,
      "id": 239821,
      "images": {
        "main": "https://a.scdn.gr/images/sku_main_images/000239/239821/medium_20160722010105_metamorfoste_ti_zoi_sas.jpeg"
      },
      "main_author": "Louise L. Hay",
      "main_author_id": 3253,
      "name": "\u039c\u03b5\u03c4\u03b1\u03bc\u03bf\u03c1\u03c6\u03ce\u03c3\u03c4\u03b5 \u03c4\u03b7 \u03b6\u03c9\u03ae \u03c3\u03b1\u03c2",
      "price_max": 17.6,
      "price_min": 12.05,
      "reviews_count": 2,
      "reviewscore": 4.5,
      "shop_count": 10
    },
    {
      "favorited": false,
      "first_product_shop_info": null,
      "id": 270799,
      "images": {
        "main": "https://b.scdn.gr/images/sku_main_images/000270/270799/medium_20160722055445_exeliktiki_psychologia.jpeg"
      },
      "main_author": "Robert S. Feldman",
      "main_author_id": 88810,
      "name": "\u0395\u03be\u03b5\u03bb\u03b9\u03ba\u03c4\u03b9\u03ba\u03ae \u03c8\u03c5\u03c7\u03bf\u03bb\u03bf\u03b3\u03af\u03b1",
      "price_max": 73.0,
      "price_min": 50.22,
      "reviews_count": 0,
      "reviewscore": 0.0,
      "shop_count": 8
    },
    {
      "favorited": false,
      "first_product_shop_info": null,
      "id": 285113,
      "images": {
        "main": "https://d.scdn.gr/images/sku_main_images/000285/285113/medium_20160722075905_to_vivlio_ton_skion.jpeg"
      },
      "main_author": "Gerald B. Gardner",
      "main_author_id": 91058,
      "name": "\u03a4\u03bf \u03b2\u03b9\u03b2\u03bb\u03af\u03bf \u03c4\u03c9\u03bd \u03c3\u03ba\u03b9\u03ce\u03bd",
      "price_max": 15.5,
      "price_min": 11.4,
      "reviews_count": 0,
      "reviewscore": 0.0,
      "shop_count": 7
    },
    {
      "favorited": false,
      "first_product_shop_info": null,
      "id": 238869,
      "images": {
        "main": "https://c.scdn.gr/images/sku_main_images/000238/238869/medium_20160722003126_ti_na_perimeneis_otan_eisai_egyos.jpeg"
      },
      "main_author": "Arlene Eisenberg",
      "main_author_id": 6206,
      "name": "\u03a4\u03b9 \u03bd\u03b1 \u03c0\u03b5\u03c1\u03b9\u03bc\u03ad\u03bd\u03b5\u03b9\u03c2 \u03cc\u03c4\u03b1\u03bd \u03b5\u03af\u03c3\u03b1\u03b9 \u03ad\u03b3\u03ba\u03c5\u03bf\u03c2",
      "price_max": 35.7,
      "price_min": 24.14,
      "reviews_count": 1,
      "reviewscore": 5.0,
      "shop_count": 13
    },
    {
      "favorited": false,
      "first_product_shop_info": null,
      "id": 234661,
      "images": {
        "main": "https://d.scdn.gr/images/sku_main_images/000234/234661/medium_20160721231906_i_dynami_tou_yposyneiditou.jpeg"
      },
      "main_author": "Joseph Murphy",
      "main_author_id": 11328,
      "name": "\u0397 \u03b4\u03cd\u03bd\u03b1\u03bc\u03b7 \u03c4\u03bf\u03c5 \u03c5\u03c0\u03bf\u03c3\u03c5\u03bd\u03b5\u03b9\u03b4\u03ae\u03c4\u03bf\u03c5",
      "price_max": 17.32,
      "price_min": 11.72,
      "reviews_count": 0,
      "reviewscore": 0.0,
      "shop_count": 11
    },
    {
      "favorited": false,
      "first_product_shop_info": null,
      "id": 8633776,
      "images": {
        "main": "https://a.scdn.gr/images/sku_main_images/008633/8633776/medium_20160723194828_pos_na_milate_sta_paidia_sas_oste_na_sas_akoyn_kai_pos_na_ta_akoyte_oste_na_sas_miloyn.jpeg"
      },
      "main_author": "Adele Faber",
      "main_author_id": 70394,
      "name": "\u03a0\u03c9\u03c2 \u03bd\u03b1 \u03bc\u03b9\u03bb\u03ac\u03c4\u03b5 \u03c3\u03c4\u03b1 \u03c0\u03b1\u03b9\u03b4\u03b9\u03ac \u03c3\u03b1\u03c2 \u03ce\u03c3\u03c4\u03b5 \u03bd\u03b1 \u03c3\u03b1\u03c2 \u03b1\u03ba\u03bf\u03cd\u03bd \u03ba\u03b1\u03b9 \u03c0\u03c9\u03c2 \u03bd\u03b1 \u03c4\u03b1 \u03b1\u03ba\u03bf\u03cd\u03c4\u03b5 \u03ce\u03c3\u03c4\u03b5 \u03bd\u03b1 \u03c3\u03b1\u03c2 \u03bc\u03b9\u03bb\u03bf\u03cd\u03bd",
      "price_max": 17.9,
      "price_min": 11.56,
      "reviews_count": 0,
      "reviewscore": 0.0,
      "shop_count": 12
    },
    {
      "favorited": false,
      "first_product_shop_info": null,
      "id": 173996,
      "images": {
        "main": "https://c.scdn.gr/images/sku_main_images/000173/173996/medium_20160721054648_i_dynami_tou_tora.jpeg"
      },
      "main_author": "Eckhart Tolle",
      "main_author_id": 43938,
      "name": "\u0397 \u03b4\u03cd\u03bd\u03b1\u03bc\u03b7 \u03c4\u03bf\u03c5 \u03c4\u03ce\u03c1\u03b1",
      "price_max": 16.81,
      "price_min": 12.79,
      "reviews_count": 1,
      "reviewscore": 5.0,
      "shop_count": 9
    },
    {
      "favorited": false,
      "first_product_shop_info": null,
      "id": 10915165,
      "images": {
        "main": "https://d.scdn.gr/images/sku_main_images/010915/10915165/medium_20170129010602_i_egyklopaideia_tis_egymosynis.jpeg"
      },
      "main_author": "\u03a3\u03c5\u03bb\u03bb\u03bf\u03b3\u03b9\u03ba\u03cc \u03ad\u03c1\u03b3\u03bf",
      "main_author_id": 7912,
      "name": "\u0397 \u03b5\u03b3\u03ba\u03c5\u03ba\u03bb\u03bf\u03c0\u03b1\u03af\u03b4\u03b5\u03b9\u03b1 \u03c4\u03b7\u03c2 \u03b5\u03b3\u03ba\u03c5\u03bc\u03bf\u03c3\u03cd\u03bd\u03b7\u03c2",
      "price_max": 29.9,
      "price_min": 19.2,
      "reviews_count": 0,
      "reviewscore": 0.0,
      "shop_count": 9
    },
    {
      "favorited": false,
      "first_product_shop_info": null,
      "id": 99714,
      "images": {
        "main": "https://d.scdn.gr/images/sku_main_images/000099/99714/medium_20160719131655_pos_na_kerdizeis_filous_kai_na_epireazeis_tous_anthropous.jpeg"
      },
      "main_author": "Dale Carnegie",
      "main_author_id": 21765,
      "name": "\u03a0\u03ce\u03c2 \u03bd\u03b1 \u03ba\u03b5\u03c1\u03b4\u03af\u03b6\u03b5\u03b9\u03c2 \u03c6\u03af\u03bb\u03bf\u03c5\u03c2 \u03ba\u03b1\u03b9 \u03bd\u03b1 \u03b5\u03c0\u03b7\u03c1\u03b5\u03ac\u03b6\u03b5\u03b9\u03c2 \u03c4\u03bf\u03c5\u03c2 \u03b1\u03bd\u03b8\u03c1\u03ce\u03c0\u03bf\u03c5\u03c2",
      "price_max": 19.0,
      "price_min": 13.22,
      "reviews_count": 0,
      "reviewscore": 0.0,
      "shop_count": 11
    },
    {
      "favorited": false,
      "first_product_shop_info": null,
      "id": 10114760,
      "images": {
        "main": "https://a.scdn.gr/images/sku_main_images/010114/10114760/medium_20161014010558_ta_mystika_tou_apotelesmatikoy_gonea.jpeg"
      },
      "main_author": "1918-2002 Thomas Gordon",
      "main_author_id": 84350,
      "name": "\u03a4\u03b1 \u03bc\u03c5\u03c3\u03c4\u03b9\u03ba\u03ac \u03c4\u03bf\u03c5 \u03b1\u03c0\u03bf\u03c4\u03b5\u03bb\u03b5\u03c3\u03bc\u03b1\u03c4\u03b9\u03ba\u03bf\u03cd \u03b3\u03bf\u03bd\u03ad\u03b1",
      "price_max": 23.32,
      "price_min": 16.22,
      "reviews_count": 0,
      "reviewscore": 0.0,
      "shop_count": 8
    }
  ],
  "meta": {
    "order_by_methods": {
      "created_on": "\u0391\u03cd\u03be\u03bf\u03c5\u03c3\u03b1 \u03b7\u03bc/\u03bd\u03af\u03b1 \u03ad\u03ba\u03b4\u03bf\u03c3\u03b7\u03c2",
      "popularity": "\u0394\u03b7\u03bc\u03bf\u03c4\u03b9\u03ba\u03cc\u03c4\u03b7\u03c4\u03b1",
      "pricevat": "\u0391\u03cd\u03be\u03bf\u03c5\u03c3\u03b1 \u03c4\u03b9\u03bc\u03ae"
    },
    "ordered_by": "popularity",
    "pagination": {
      "page": 1,
      "per": 25,
      "total_pages": 363,
      "total_results": 9066
    }
  }
}
