{
  "filter_groups": [
    {
      "active": true,
      "category_id": 40,
      "combined": false,
      "created_at": null,
      "filter_type": 2,
      "hint": "",
      "id": 48636,
      "name": "\u039c\u03ad\u03b3\u03b5\u03b8\u03bf\u03c2 \u039f\u03b8\u03cc\u03bd\u03b7\u03c2",
      "updated_at": "2016-10-04T22:30:54+03:00"
    },
    {
      "active": true,
      "category_id": 40,
      "combined": false,
      "created_at": "2014-12-24T19:40:50+02:00",
      "filter_type": 2,
      "hint": "",
      "id": 75300,
      "name": "\u039c\u03ad\u03b3\u03b5\u03b8\u03bf\u03c2 \u039c\u03bd\u03ae\u03bc\u03b7\u03c2 RAM",
      "updated_at": "2016-10-04T22:30:54+03:00"
    }
  ],
  "meta": {
    "pagination": {
      "page": 1,
      "per": 2,
      "total_pages": 7,
      "total_results": 13
    }
  }
}
