{
  "categories": [
    {
      "id": 1,
      "name": "Σταθερή Τηλεφωνία",
      "children_count": 5,
      "image_url": "https://c.scdn.gr/ds/categories/1/20150508125916_c7ffab14.jpg",
      "parent_id": 2,
      "fashion": false,
      "layout_mode": "list",
      "web_uri": "https://www.skroutz.gr/c/1/statherh-tilefwnia.html",
      "code": "statherh-tilefwnia",
      "path": "76,1269,2,1",
      "show_specifications": false,
      "manufacturer_title": "Κατασκευαστές"
    },
    {
      "id": 2,
      "name": "Τηλεφωνία",
      "children_count": 2,
      "image_url": "https://b.scdn.gr/ds/categories/2/20151204131758_3e2f9f76.jpg",
      "parent_id": 1269,
      "fashion": false,
      "layout_mode": "list",
      "web_uri": "https://www.skroutz.gr/c/2/tilefwnia.html",
      "code": "tilefwnia",
      "path": "76,1269,2",
      "show_specifications": false,
      "manufacturer_title": "Κατασκευαστές"
    },
    {
      "id": 5,
      "name": "Φωτογραφία & Video",
      "children_count": 4,
      "image_url": "https://a.scdn.gr/ds/categories/5/20160401163038_16e146a2.jpg",
      "parent_id": 1269,
      "fashion": false,
      "layout_mode": "list",
      "web_uri": "https://www.skroutz.gr/c/5/photografia-video.html",
      "code": "photografia-video",
      "path": "76,1269,5",
      "show_specifications": false,
      "manufacturer_title": "Κατασκευαστές"
    },
    {
      "id": 6,
      "name": "Διάφορα Εικόνας",
      "children_count": 2,
      "image_url": "https://a.scdn.gr/ds/categories/6/20150127155831_5_VL88_withWave.jpg",
      "parent_id": 309,
      "fashion": false,
      "layout_mode": "list",
      "web_uri": "https://www.skroutz.gr/c/6/diafora_eikonas.html",
      "code": "aksesouar-hxou-kai-eikonas",
      "path": "76,1269,309,6",
      "show_specifications": false,
      "manufacturer_title": "Κατασκευαστές"
    },
    {
      "id": 10,
      "name": "Projectors",
      "children_count": 0,
      "image_url": "https://c.scdn.gr/ds/categories/10/20150118013550_benq_sp920p.jpg",
      "parent_id": 79,
      "fashion": false,
      "layout_mode": "list",
      "web_uri": "https://www.skroutz.gr/c/10/protzektores.html",
      "code": "protzektores",
      "path": "76,1269,309,79,10",
      "show_specifications": true,
      "manufacturer_title": "Κατασκευαστές"
    }
  ],
  "meta": {
    "pagination": {
      "total_results": 2344,
      "total_pages": 469,
      "page": 1,
      "per": 5
    }
  }
}