{
  "favorites": [
    {
      "id": 7927460,
      "have_it": false,
      "user_id": 334941,
      "user_notes": null,
      "sku_id": 8333136,
      "created_at": "2017-02-01T13:15:07+02:00",
      "updated_at": "2017-02-01T13:15:07+02:00",
      "get_absolute_threshold": null
    },
    {
      "id": 7926151,
      "have_it": false,
      "user_id": 334941,
      "user_notes": null,
      "sku_id": 8221632,
      "created_at": "2017-02-01T11:23:14+02:00",
      "updated_at": "2017-02-06T22:11:59+02:00",
      "get_absolute_threshold": null
    },
    {
      "id": 7908464,
      "have_it": false,
      "user_id": 334941,
      "user_notes": null,
      "sku_id": 8811547,
      "created_at": "2017-01-31T12:28:24+02:00",
      "updated_at": "2017-01-31T12:28:24+02:00",
      "get_absolute_threshold": null
    },
    {
      "id": 7908446,
      "have_it": false,
      "user_id": 334941,
      "user_notes": null,
      "sku_id": 8864706,
      "created_at": "2017-01-31T12:26:22+02:00",
      "updated_at": "2017-02-06T22:07:15+02:00",
      "get_absolute_threshold": null
    },
    {
      "id": 7781595,
      "have_it": false,
      "user_id": 334941,
      "user_notes": null,
      "sku_id": 6290142,
      "created_at": "2017-01-25T14:19:09+02:00",
      "updated_at": "2017-02-06T08:12:09+02:00",
      "get_absolute_threshold": null
    },
    {
      "id": 7781579,
      "have_it": false,
      "user_id": 334941,
      "user_notes": null,
      "sku_id": 9521654,
      "created_at": "2017-01-25T14:17:50+02:00",
      "updated_at": "2017-02-01T16:17:35+02:00",
      "get_absolute_threshold": null
    },
    {
      "id": 7781577,
      "have_it": false,
      "user_id": 334941,
      "user_notes": null,
      "sku_id": 9507966,
      "created_at": "2017-01-25T14:17:48+02:00",
      "updated_at": "2017-02-04T02:13:26+02:00",
      "get_absolute_threshold": null
    },
    {
      "id": 7690286,
      "have_it": false,
      "user_id": 334941,
      "user_notes": null,
      "sku_id": 9994262,
      "created_at": "2017-01-20T17:13:05+02:00",
      "updated_at": "2017-01-20T17:13:05+02:00",
      "get_absolute_threshold": null
    },
    {
      "id": 7685105,
      "have_it": false,
      "user_id": 334941,
      "user_notes": null,
      "sku_id": 9884904,
      "created_at": "2017-01-20T12:07:30+02:00",
      "updated_at": "2017-01-20T12:07:30+02:00",
      "get_absolute_threshold": null
    },
    {
      "id": 7650441,
      "have_it": false,
      "user_id": 334941,
      "user_notes": null,
      "sku_id": 7326088,
      "created_at": "2017-01-18T13:27:20+02:00",
      "updated_at": "2017-01-18T13:27:20+02:00",
      "get_absolute_threshold": "19.11"
    },
    {
      "id": 7247164,
      "have_it": false,
      "user_id": 334941,
      "user_notes": null,
      "sku_id": 6776814,
      "created_at": "2016-12-29T15:25:11+02:00",
      "updated_at": "2016-12-29T15:25:11+02:00",
      "get_absolute_threshold": null
    },
    {
      "id": 7247163,
      "have_it": false,
      "user_id": 334941,
      "user_notes": null,
      "sku_id": 9899808,
      "created_at": "2016-12-29T15:25:09+02:00",
      "updated_at": "2017-01-04T10:26:11+02:00",
      "get_absolute_threshold": null
    },
    {
      "id": 7247161,
      "have_it": false,
      "user_id": 334941,
      "user_notes": null,
      "sku_id": 8767893,
      "created_at": "2016-12-29T15:25:08+02:00",
      "updated_at": "2016-12-31T20:36:09+02:00",
      "get_absolute_threshold": null
    },
    {
      "id": 7247160,
      "have_it": false,
      "user_id": 334941,
      "user_notes": null,
      "sku_id": 9526902,
      "created_at": "2016-12-29T15:25:07+02:00",
      "updated_at": "2017-01-14T18:10:39+02:00",
      "get_absolute_threshold": null
    },
    {
      "id": 7228640,
      "have_it": false,
      "user_id": 334941,
      "user_notes": null,
      "sku_id": 7934886,
      "created_at": "2016-12-28T17:25:42+02:00",
      "updated_at": "2016-12-28T17:25:42+02:00",
      "get_absolute_threshold": null
    },
    {
      "id": 7228635,
      "have_it": false,
      "user_id": 334941,
      "user_notes": null,
      "sku_id": 5370592,
      "created_at": "2016-12-28T17:25:22+02:00",
      "updated_at": "2016-12-28T17:25:22+02:00",
      "get_absolute_threshold": null
    },
    {
      "id": 7228634,
      "have_it": false,
      "user_id": 334941,
      "user_notes": null,
      "sku_id": 7039829,
      "created_at": "2016-12-28T17:25:20+02:00",
      "updated_at": "2016-12-28T17:25:20+02:00",
      "get_absolute_threshold": null
    },
    {
      "id": 7228633,
      "have_it": false,
      "user_id": 334941,
      "user_notes": null,
      "sku_id": 7039658,
      "created_at": "2016-12-28T17:25:19+02:00",
      "updated_at": "2016-12-28T17:25:19+02:00",
      "get_absolute_threshold": null
    },
    {
      "id": 7227564,
      "have_it": false,
      "user_id": 334941,
      "user_notes": null,
      "sku_id": 9572084,
      "created_at": "2016-12-28T16:31:26+02:00",
      "updated_at": "2017-01-20T12:39:29+02:00",
      "get_absolute_threshold": null
    },
    {
      "id": 7225283,
      "have_it": false,
      "user_id": 334941,
      "user_notes": null,
      "sku_id": 8435610,
      "created_at": "2016-12-28T14:37:48+02:00",
      "updated_at": "2016-12-28T14:37:48+02:00",
      "get_absolute_threshold": null
    },
    {
      "id": 6976116,
      "have_it": false,
      "user_id": 334941,
      "user_notes": null,
      "sku_id": 7904356,
      "created_at": "2016-12-13T09:55:55+02:00",
      "updated_at": "2016-12-13T09:55:55+02:00",
      "get_absolute_threshold": null
    },
    {
      "id": 6697531,
      "have_it": false,
      "user_id": 334941,
      "user_notes": null,
      "sku_id": 360622,
      "created_at": "2016-11-26T14:41:24+02:00",
      "updated_at": "2017-01-26T14:41:28+02:00",
      "get_absolute_threshold": null
    },
    {
      "id": 6453090,
      "have_it": false,
      "user_id": 334941,
      "user_notes": null,
      "sku_id": 7957675,
      "created_at": "2016-11-11T15:22:32+02:00",
      "updated_at": "2016-12-10T10:22:14+02:00",
      "get_absolute_threshold": null
    },
    {
      "id": 6194028,
      "have_it": false,
      "user_id": 334941,
      "user_notes": null,
      "sku_id": 6535417,
      "created_at": "2016-10-25T12:24:14+03:00",
      "updated_at": "2017-01-09T20:14:45+02:00",
      "get_absolute_threshold": null
    },
    {
      "id": 6194026,
      "have_it": false,
      "user_id": 334941,
      "user_notes": null,
      "sku_id": 6999182,
      "created_at": "2016-10-25T12:24:11+03:00",
      "updated_at": "2017-01-15T02:19:10+02:00",
      "get_absolute_threshold": null
    }
  ],
  "meta": {
    "pagination": {
      "total_results": 124,
      "total_pages": 5,
      "page": 1,
      "per": 25
    }
  }
}