{
  "favorite_lists": [
    {
      "id": 679365,
      "name": "test",
      "category_id": null
    },
    {
      "id": 861839,
      "name": "mobile",
      "category_id": null
    },
    {
      "id": 881601,
      "name": "a new list name",
      "category_id": null
    },
    {
      "id": -1448,
      "name": "Γυναικεία Πέδιλα"
    },
    {
      "id": -828,
      "name": "Ανδρικές Ζώνες"
    },
    {
      "id": -1577,
      "name": "Ανδρικά T-shirts"
    },
    {
      "id": -821,
      "name": "Γυναικείες Τσάντες"
    },
    {
      "id": -790,
      "name": "Γυαλιά Ηλίου"
    },
    {
      "id": -1763,
      "name": "Flat Μποτάκια"
    },
    {
      "id": -1776,
      "name": "Ανδρικά Αρώματα"
    },
    {
      "id": -334,
      "name": "Ανδρικά Ρολόγια"
    },
    {
      "id": -40,
      "name": "Κινητά Τηλέφωνα"
    },
    {
      "id": -712,
      "name": "Βάσεις & Docking Stations"
    },
    {
      "id": -34,
      "name": "Βιβλία"
    },
    {
      "id": -435,
      "name": "Bluetooth Handsfree"
    },
    {
      "id": -12,
      "name": "Τηλεοράσεις"
    },
    {
      "id": -582,
      "name": "Μπαταρίες Κινητών Τηλεφώνων"
    },
    {
      "id": -1632,
      "name": "Διάφορα Αξεσουάρ Tablet"
    },
    {
      "id": -1413,
      "name": "PS4 Games"
    },
    {
      "id": -1748,
      "name": "Power Banks"
    },
    {
      "id": -1373,
      "name": "Γυαλιά 3D"
    },
    {
      "id": -88,
      "name": "SSD Σκληροί Δίσκοι"
    },
    {
      "id": -345,
      "name": "Μίκτες & Κονσόλες"
    },
    {
      "id": -1743,
      "name": "After Shave"
    },
    {
      "id": -1511,
      "name": "Πιστολάκια Μαλλιών"
    }
  ],
  "meta": {
    "pagination": {
      "total_results": 48,
      "total_pages": 2,
      "page": 1,
      "per": 25
    }
  }
}