{
  "manufacturers": [
    {
      "id": 1,
      "image_url": "https://c.scdn.gr/ds/manufacturers/1/e2e019eea82bfe6b82b47ab77f6b4497.png",
      "name": "EA - Electronic Arts"
    },
    {
      "id": 2,
      "image_url": "https://c.scdn.gr/ds/manufacturers/2/502f0698a44df30f4fd55fd9e0893369.jpg",
      "name": "Sony"
    }
  ],
  "meta": {
    "pagination": {
      "page": 1,
      "per": 2,
      "total_pages": 13493,
      "total_results": 26986
    }
  }
}
