{
  "books": [
    {
      "favorited": false,
      "first_product_shop_info": null,
      "id": 13532586,
      "images": {
        "main": "https://b.scdn.gr/images/sku_main_images/013532/13532586/medium_20171208011554_piece_of_cake.jpeg"
      },
      "main_author": "\u0386\u03ba\u03b7\u03c2 \u03a0\u03b5\u03c4\u03c1\u03b5\u03c4\u03b6\u03af\u03ba\u03b7\u03c2",
      "main_author_id": 111086,
      "name": "Piece of cake",
      "price_max": 35.0,
      "price_min": 21.0,
      "reviews_count": 0,
      "reviewscore": 0.0,
      "shop_count": 13
    },
    {
      "favorited": true,
      "first_product_shop_info": null,
      "id": 242327,
      "images": {
        "main": "https://d.scdn.gr/images/sku_main_images/000242/242327/medium_20160722014855_o_chari_poter_kai_i_filosofiki_lithos.jpeg"
      },
      "main_author": "1965- J. K. Rowling",
      "main_author_id": 385,
      "name": "\u039f \u03a7\u03ac\u03c1\u03b9 \u03a0\u03cc\u03c4\u03b5\u03c1 \u03ba\u03b1\u03b9 \u03b7 \u03c6\u03b9\u03bb\u03bf\u03c3\u03bf\u03c6\u03b9\u03ba\u03ae \u03bb\u03af\u03b8\u03bf\u03c2",
      "price_max": 15.79,
      "price_min": 6.82,
      "reviews_count": 2,
      "reviewscore": 5.0,
      "shop_count": 13
    },
    {
      "favorited": false,
      "first_product_shop_info": null,
      "id": 13469406,
      "images": {
        "main": "https://a.scdn.gr/images/sku_main_images/013469/13469406/medium_20171201011302_origin.jpeg"
      },
      "main_author": "Dan Brown",
      "main_author_id": 50290,
      "name": "Origin (e-book)",
      "price_max": 14.99,
      "price_min": 14.99,
      "reviews_count": 0,
      "reviewscore": 0.0,
      "shop_count": 2
    },
    {
      "favorited": false,
      "first_product_shop_info": null,
      "id": 13469407,
      "images": {
        "main": "https://a.scdn.gr/images/sku_main_images/013469/13469407/medium_20171201011302_origin.jpeg"
      },
      "main_author": "Dan Brown",
      "main_author_id": 50290,
      "name": "Origin",
      "price_max": 18.8,
      "price_min": 16.65,
      "reviews_count": 0,
      "reviewscore": 0.0,
      "shop_count": 14
    },
    {
      "favorited": false,
      "first_product_shop_info": null,
      "id": 5866460,
      "images": {
        "main": "https://b.scdn.gr/images/sku_main_images/005866/5866460/medium_20160723140250_ayto_prepei_na_to_dokimaseis.jpeg"
      },
      "main_author": "\u0386\u03ba\u03b7\u03c2 \u03a0\u03b5\u03c4\u03c1\u03b5\u03c4\u03b6\u03af\u03ba\u03b7\u03c2",
      "main_author_id": 111086,
      "name": "\u0391\u03c5\u03c4\u03cc \u03c0\u03c1\u03ad\u03c0\u03b5\u03b9 \u03bd\u03b1 \u03c4\u03bf \u03b4\u03bf\u03ba\u03b9\u03bc\u03ac\u03c3\u03b5\u03b9\u03c2",
      "price_max": 35.0,
      "price_min": 21.0,
      "reviews_count": 0,
      "reviewscore": 0.0,
      "shop_count": 12
    },
    {
      "favorited": true,
      "first_product_shop_info": null,
      "id": 145771,
      "images": {
        "main": "https://a.scdn.gr/images/sku_main_images/000145/145771/medium_20160720135644_o_chari_poter_kai_o_imiaimos_prigips.jpeg"
      },
      "main_author": "1965- J. K. Rowling",
      "main_author_id": 385,
      "name": "\u039f \u03a7\u03ac\u03c1\u03b9 \u03a0\u03cc\u03c4\u03b5\u03c1 \u03ba\u03b1\u03b9 \u03bf \u03b7\u03bc\u03af\u03b1\u03b9\u03bc\u03bf\u03c2 \u03c0\u03c1\u03af\u03b3\u03ba\u03b9\u03c8",
      "price_max": 25.48,
      "price_min": 9.9,
      "reviews_count": 0,
      "reviewscore": 0.0,
      "shop_count": 13
    },
    {
      "favorited": false,
      "first_product_shop_info": null,
      "id": 228697,
      "images": {
        "main": "https://b.scdn.gr/images/sku_main_images/000228/228697/medium_20160721212828_o_chari_poter_kai_o_aichmalotos_tou_azkampan.jpeg"
      },
      "main_author": "1965- J. K. Rowling",
      "main_author_id": 385,
      "name": "\u039f \u03a7\u03ac\u03c1\u03b9 \u03a0\u03cc\u03c4\u03b5\u03c1 \u03ba\u03b1\u03b9 \u03bf \u03b1\u03b9\u03c7\u03bc\u03ac\u03bb\u03c9\u03c4\u03bf\u03c2 \u03c4\u03bf\u03c5 \u0391\u03b6\u03ba\u03b1\u03bc\u03c0\u03ac\u03bd",
      "price_max": 19.16,
      "price_min": 10.68,
      "reviews_count": 0,
      "reviewscore": 0.0,
      "shop_count": 13
    },
    {
      "favorited": false,
      "first_product_shop_info": null,
      "id": 11906815,
      "images": {
        "main": "https://d.scdn.gr/images/sku_main_images/011906/11906815/medium_20170513010552_gramma_apo_chryso.jpeg"
      },
      "main_author": "\u039b\u03ad\u03bd\u03b1 \u039c\u03b1\u03bd\u03c4\u03ac",
      "main_author_id": 39020,
      "name": "\u0393\u03c1\u03ac\u03bc\u03bc\u03b1 \u03b1\u03c0\u03cc \u03c7\u03c1\u03c5\u03c3\u03cc",
      "price_max": 17.7,
      "price_min": 14.16,
      "reviews_count": 0,
      "reviewscore": 0.0,
      "shop_count": 20
    },
    {
      "favorited": false,
      "first_product_shop_info": null,
      "id": 242082,
      "images": {
        "main": "https://c.scdn.gr/images/sku_main_images/000242/242082/medium_20160722014135_o_chari_poter_kai_i_kamara_me_ta_mystika.jpeg"
      },
      "main_author": "1965- J. K. Rowling",
      "main_author_id": 385,
      "name": "\u039f \u03a7\u03ac\u03c1\u03b9 \u03a0\u03cc\u03c4\u03b5\u03c1 \u03ba\u03b1\u03b9 \u03b7 \u03ba\u03ac\u03bc\u03b1\u03c1\u03b1 \u03bc\u03b5 \u03c4\u03b1 \u03bc\u03c5\u03c3\u03c4\u03b9\u03ba\u03ac",
      "price_max": 15.79,
      "price_min": 9.92,
      "reviews_count": 0,
      "reviewscore": 0.0,
      "shop_count": 14
    },
    {
      "favorited": false,
      "first_product_shop_info": null,
      "id": 13390113,
      "images": {
        "main": "https://b.scdn.gr/assets/schwartz/books/no-cover-big.png"
      },
      "main_author": "\u039a\u03c9\u03c3\u03c4\u03ae\u03c2 \u039a\u03c9\u03c3\u03c4\u03ac\u03ba\u03b7\u03c2",
      "main_author_id": 119311,
      "name": "\u03a0\u03af\u03c4\u03b5\u03c2 \u03b1\u03c0\u03cc \u03c7\u03ad\u03c1\u03b9",
      "price_max": 19.98,
      "price_min": 14.34,
      "reviews_count": 0,
      "reviewscore": 0.0,
      "shop_count": 10
    },
    {
      "favorited": true,
      "first_product_shop_info": null,
      "id": 121274,
      "images": {
        "main": "https://a.scdn.gr/images/sku_main_images/000121/121274/medium_20160720003521_o_chari_poter_kai_oi_kliroi_tou_thanatou.jpeg"
      },
      "main_author": "1965- J. K. Rowling",
      "main_author_id": 385,
      "name": "\u039f \u03a7\u03ac\u03c1\u03b9 \u03a0\u03cc\u03c4\u03b5\u03c1 \u03ba\u03b1\u03b9 \u03bf\u03b9 \u03ba\u03bb\u03ae\u03c1\u03bf\u03b9 \u03c4\u03bf\u03c5 \u03b8\u03b1\u03bd\u03ac\u03c4\u03bf\u03c5",
      "price_max": 28.02,
      "price_min": 10.69,
      "reviews_count": 0,
      "reviewscore": 0.0,
      "shop_count": 14
    },
    {
      "favorited": false,
      "first_product_shop_info": null,
      "id": 109433,
      "images": {
        "main": "https://a.scdn.gr/images/sku_main_images/000109/109433/medium_20160719185022_i_kleftra_ton_vivlion.jpeg"
      },
      "main_author": "Markus Zusak",
      "main_author_id": 78541,
      "name": "\u0397 \u03ba\u03bb\u03ad\u03c6\u03c4\u03c1\u03b1 \u03c4\u03c9\u03bd \u03b2\u03b9\u03b2\u03bb\u03af\u03c9\u03bd",
      "price_max": 18.26,
      "price_min": 11.44,
      "reviews_count": 0,
      "reviewscore": 0.0,
      "shop_count": 13
    },
    {
      "favorited": false,
      "first_product_shop_info": null,
      "id": 199084,
      "images": {
        "main": "https://b.scdn.gr/images/sku_main_images/000199/199084/medium_20160721133819_o_chari_poter_kai_to_kypello_tis_fotias.jpeg"
      },
      "main_author": "1965- J. K. Rowling",
      "main_author_id": 385,
      "name": "\u039f \u03a7\u03ac\u03c1\u03b9 \u03a0\u03cc\u03c4\u03b5\u03c1 \u03ba\u03b1\u03b9 \u03c4\u03bf \u03ba\u03cd\u03c0\u03b5\u03bb\u03bb\u03bf \u03c4\u03b7\u03c2 \u03c6\u03c9\u03c4\u03b9\u03ac\u03c2",
      "price_max": 22.53,
      "price_min": 10.68,
      "reviews_count": 0,
      "reviewscore": 0.0,
      "shop_count": 13
    },
    {
      "favorited": false,
      "first_product_shop_info": null,
      "id": 13292162,
      "images": {
        "main": "https://a.scdn.gr/images/sku_main_images/013292/13292162/medium_20171111010459_to_imerologio_enos_spasikla_i_apodrasi.jpeg"
      },
      "main_author": "Jeff Kinney",
      "main_author_id": 78520,
      "name": "\u03a4\u03bf \u03b7\u03bc\u03b5\u03c1\u03bf\u03bb\u03cc\u03b3\u03b9\u03bf \u03b5\u03bd\u03cc\u03c2 \u03c3\u03c0\u03b1\u03c3\u03af\u03ba\u03bb\u03b1: \u0397 \u03b1\u03c0\u03cc\u03b4\u03c1\u03b1\u03c3\u03b7",
      "price_max": 11.1,
      "price_min": 7.6,
      "reviews_count": 0,
      "reviewscore": 0.0,
      "shop_count": 13
    },
    {
      "favorited": false,
      "first_product_shop_info": null,
      "id": 10915165,
      "images": {
        "main": "https://d.scdn.gr/images/sku_main_images/010915/10915165/medium_20170129010602_i_egyklopaideia_tis_egymosynis.jpeg"
      },
      "main_author": "\u03a3\u03c5\u03bb\u03bb\u03bf\u03b3\u03b9\u03ba\u03cc \u03ad\u03c1\u03b3\u03bf",
      "main_author_id": 7912,
      "name": "\u0397 \u03b5\u03b3\u03ba\u03c5\u03ba\u03bb\u03bf\u03c0\u03b1\u03af\u03b4\u03b5\u03b9\u03b1 \u03c4\u03b7\u03c2 \u03b5\u03b3\u03ba\u03c5\u03bc\u03bf\u03c3\u03cd\u03bd\u03b7\u03c2",
      "price_max": 29.9,
      "price_min": 19.2,
      "reviews_count": 0,
      "reviewscore": 0.0,
      "shop_count": 9
    },
    {
      "favorited": false,
      "first_product_shop_info": null,
      "id": 9815018,
      "images": {
        "main": "https://d.scdn.gr/images/sku_main_images/009815/9815018/medium_20160910011920_o_chari_poter_kai_to_katarameno_paidi.jpeg"
      },
      "main_author": "1965- J. K. Rowling",
      "main_author_id": 385,
      "name": "\u039f \u03a7\u03ac\u03c1\u03b9 \u03a0\u03cc\u03c4\u03b5\u03c1 \u03ba\u03b1\u03b9 \u03c4\u03bf \u03ba\u03b1\u03c4\u03b1\u03c1\u03b1\u03bc\u03ad\u03bd\u03bf \u03c0\u03b1\u03b9\u03b4\u03af",
      "price_max": 16.6,
      "price_min": 10.72,
      "reviews_count": 1,
      "reviewscore": 5.0,
      "shop_count": 13
    },
    {
      "favorited": false,
      "first_product_shop_info": null,
      "id": 314592,
      "images": {
        "main": "https://d.scdn.gr/images/sku_main_images/000314/314592/medium_20160722095615_eimai_ena_koritsaki.jpeg"
      },
      "main_author": "\u03a0\u03ad\u03bd\u03c5 \u03a8\u03c5\u03c7\u03bf\u03b3\u03b9\u03bf\u03cd",
      "main_author_id": 90277,
      "name": "\u0395\u03af\u03bc\u03b1\u03b9 \u03ad\u03bd\u03b1 \u03ba\u03bf\u03c1\u03b9\u03c4\u03c3\u03ac\u03ba\u03b9!",
      "price_max": 12.5,
      "price_min": 11.59,
      "reviews_count": 0,
      "reviewscore": 0.0,
      "shop_count": 4
    },
    {
      "favorited": false,
      "first_product_shop_info": null,
      "id": 402384,
      "images": {
        "main": "https://c.scdn.gr/images/sku_main_images/000402/402384/medium_20160722162634_to_moraki_mou.jpeg"
      },
      "main_author": null,
      "main_author_id": null,
      "name": "\u03a4\u03bf \u03bc\u03c9\u03c1\u03ac\u03ba\u03b9 \u03bc\u03bf\u03c5",
      "price_max": 16.92,
      "price_min": 12.9,
      "reviews_count": 0,
      "reviewscore": 0.0,
      "shop_count": 4
    },
    {
      "favorited": false,
      "first_product_shop_info": null,
      "id": 314613,
      "images": {
        "main": "https://d.scdn.gr/images/sku_main_images/000314/314613/medium_20160722095648_eimai_ena_agoraki.jpeg"
      },
      "main_author": "\u03a0\u03ad\u03bd\u03c5 \u03a8\u03c5\u03c7\u03bf\u03b3\u03b9\u03bf\u03cd",
      "main_author_id": 90277,
      "name": "\u0395\u03af\u03bc\u03b1\u03b9 \u03ad\u03bd\u03b1 \u03b1\u03b3\u03bf\u03c1\u03ac\u03ba\u03b9!",
      "price_max": 14.95,
      "price_min": 11.39,
      "reviews_count": 0,
      "reviewscore": 0.0,
      "shop_count": 4
    },
    {
      "favorited": false,
      "first_product_shop_info": null,
      "id": 3368808,
      "images": {
        "main": "https://a.scdn.gr/images/sku_main_images/003368/3368808/medium_20160723081955_inferno.jpeg"
      },
      "main_author": "Dan Brown",
      "main_author_id": 50290,
      "name": "Inferno",
      "price_max": 18.8,
      "price_min": 10.63,
      "reviews_count": 0,
      "reviewscore": 0.0,
      "shop_count": 18
    },
    {
      "favorited": false,
      "first_product_shop_info": null,
      "id": 109730,
      "images": {
        "main": "https://b.scdn.gr/images/sku_main_images/000109/109730/medium_20160719185834_to_imerologio_enos_spasikla_ta_chronika_tou_greg_chefli.jpeg"
      },
      "main_author": "Jeff Kinney",
      "main_author_id": 78520,
      "name": "\u03a4\u03bf \u03b7\u03bc\u03b5\u03c1\u03bf\u03bb\u03cc\u03b3\u03b9\u03bf \u03b5\u03bd\u03cc\u03c2 \u03c3\u03c0\u03b1\u03c3\u03af\u03ba\u03bb\u03b1: \u03a4\u03b1 \u03c7\u03c1\u03bf\u03bd\u03b9\u03ba\u03ac \u03c4\u03bf\u03c5 \u0393\u03ba\u03c1\u03b5\u03b3\u03ba \u03a7\u03ad\u03c6\u03bb\u03b9",
      "price_max": 11.21,
      "price_min": 7.49,
      "reviews_count": 1,
      "reviewscore": 5.0,
      "shop_count": 17
    },
    {
      "favorited": false,
      "first_product_shop_info": null,
      "id": 320499,
      "images": {
        "main": "https://a.scdn.gr/images/sku_main_images/000320/320499/medium_20160722104349_to_imerologio_mias_xenerotis_istories_enos_ochi_kai_toso_dimofiles_parti_gerl.jpeg"
      },
      "main_author": "Ren\u00e9e Rachel Russell",
      "main_author_id": 88191,
      "name": "\u03a4\u03bf \u03b7\u03bc\u03b5\u03c1\u03bf\u03bb\u03cc\u03b3\u03b9\u03bf \u03bc\u03b9\u03b1\u03c2 \u03be\u03b5\u03bd\u03ad\u03c1\u03c9\u03c4\u03b7\u03c2: \u0399\u03c3\u03c4\u03bf\u03c1\u03af\u03b5\u03c2 \u03b5\u03bd\u03cc\u03c2 \u03cc\u03c7\u03b9 \u03ba\u03b1\u03b9 \u03c4\u03cc\u03c3\u03bf \u03b4\u03b7\u03bc\u03bf\u03c6\u03b9\u03bb\u03ad\u03c2 \u03c0\u03ac\u03c1\u03c4\u03b9 \u03b3\u03ba\u03b5\u03c1\u03bb",
      "price_max": 11.1,
      "price_min": 7.58,
      "reviews_count": 0,
      "reviewscore": 0.0,
      "shop_count": 17
    },
    {
      "favorited": true,
      "first_product_shop_info": null,
      "id": 163443,
      "images": {
        "main": "https://a.scdn.gr/images/sku_main_images/000163/163443/medium_20160720234149_o_chari_poter_kai_to_tagma_tou_foinika.jpeg"
      },
      "main_author": "1965- J. K. Rowling",
      "main_author_id": 385,
      "name": "\u039f \u03a7\u03ac\u03c1\u03b9 \u03a0\u03cc\u03c4\u03b5\u03c1 \u03ba\u03b1\u03b9 \u03c4\u03bf \u03c4\u03ac\u03b3\u03bc\u03b1 \u03c4\u03bf\u03c5 \u03a6\u03bf\u03af\u03bd\u03b9\u03ba\u03b1",
      "price_max": 16.6,
      "price_min": 11.44,
      "reviews_count": 0,
      "reviewscore": 0.0,
      "shop_count": 14
    },
    {
      "favorited": false,
      "first_product_shop_info": null,
      "id": 124907,
      "images": {
        "main": "https://a.scdn.gr/images/sku_main_images/000124/124907/medium_20160720025148_to_spiti_dipla_sto_potami.jpeg"
      },
      "main_author": "\u039b\u03ad\u03bd\u03b1 \u039c\u03b1\u03bd\u03c4\u03ac",
      "main_author_id": 39020,
      "name": "\u03a4\u03bf \u03c3\u03c0\u03af\u03c4\u03b9 \u03b4\u03af\u03c0\u03bb\u03b1 \u03c3\u03c4\u03bf \u03c0\u03bf\u03c4\u03ac\u03bc\u03b9",
      "price_max": 17.7,
      "price_min": 12.14,
      "reviews_count": 2,
      "reviewscore": 4.5,
      "shop_count": 17
    },
    {
      "favorited": false,
      "first_product_shop_info": null,
      "id": 6130631,
      "images": {
        "main": "https://c.scdn.gr/images/sku_main_images/006130/6130631/medium_20160723145821_ta_mystika_tou_kafe.jpeg"
      },
      "main_author": "Anette Moldvaer",
      "main_author_id": 111560,
      "name": "\u03a4\u03b1 \u03bc\u03c5\u03c3\u03c4\u03b9\u03ba\u03ac \u03c4\u03bf\u03c5 \u03ba\u03b1\u03c6\u03ad",
      "price_max": 15.92,
      "price_min": 13.65,
      "reviews_count": 0,
      "reviewscore": 0.0,
      "shop_count": 3
    }
  ],
  "meta": {
    "pagination": {
      "page": 1,
      "per": 25,
      "total_pages": 174,
      "total_results": 4342
    }
  }
}
