{
  "categories": [
    {
      "children_count": 0,
      "code": "tablet",
      "fashion": false,
      "id": 1105,
      "image_url": "https://a.scdn.gr/ds/categories/1105/20150127170004_1105.jpg",
      "layout_mode": "list",
      "manufacturer_title": "\u039a\u03b1\u03c4\u03b1\u03c3\u03ba\u03b5\u03c5\u03b1\u03c3\u03c4\u03ad\u03c2",
      "match_count": 601,
      "name": "Tablets",
      "parent_id": 1612,
      "path": "76,1269,1612,1105",
      "show_specifications": true,
      "web_uri": "https://www.skroutz.gr/c/1105/tablet.html"
    },
    {
      "children_count": 0,
      "code": "tablet-cases",
      "fashion": false,
      "id": 1608,
      "image_url": "https://c.scdn.gr/ds/categories/1608/1608.jpg",
      "layout_mode": "tiles",
      "manufacturer_title": "\u039a\u03b1\u03c4\u03b1\u03c3\u03ba\u03b5\u03c5\u03b1\u03c3\u03c4\u03ad\u03c2",
      "match_count": 6149,
      "name": "\u0398\u03ae\u03ba\u03b5\u03c2 Tablet",
      "parent_id": 1612,
      "path": "76,1269,1612,1608",
      "show_specifications": true,
      "web_uri": "https://www.skroutz.gr/c/1608/thikes-tablet.html"
    }
  ],
  "meta": {
    "alternatives": [],
    "pagination": {
      "page": 1,
      "per": 2,
      "total_pages": 58,
      "total_results": 115
    },
    "q": "Tablets",
    "strong_matches": {
      "category": {
        "children_count": 0,
        "code": "tablet",
        "fashion": false,
        "id": 1105,
        "image_url": "https://a.scdn.gr/ds/categories/1105/20150127170004_1105.jpg",
        "layout_mode": "list",
        "manufacturer_title": "\u039a\u03b1\u03c4\u03b1\u03c3\u03ba\u03b5\u03c5\u03b1\u03c3\u03c4\u03ad\u03c2",
        "name": "Tablets",
        "parent_id": 1612,
        "path": "76,1269,1612,1105",
        "show_specifications": true,
        "web_uri": "https://www.skroutz.gr/c/1105/tablet.html"
      }
    }
  }
}
