{
  "reviews": [
    {
      "id": 93026,
      "user_id": 208832,
      "review": "Έκανα την παραγγελία στις 26/1/17 - 14:45 , την ίδια μέρα το απόγευμα στέλνω mail ζητώντας να κρατηθεί το προϊόν αλλη μια μέρα αφού θα έλειπα εκτός Αθηνών. Λίγο αργότερα τηλεφωνώ ζητώντας το ίδιο πράγμα . Η ευγενέστατη υπάλληλος μου είπε πως αυτό δεν γινεται γιατι το σύστημα απο μόνο του μετά απο 72 ώρες ακυρώνει αυτόματα την παραγγελία. Εντάξει της λέω ,θα κάνω μια νέα παραγγελία την επόμενη μέρα για να παραλάβω το προϊόν στην πόλη της Χαλκίδας όπου και θα βρισκόμουν. Πηγαίνω λοιπόν στο κατάστημα για να το παραλάβω αλλά το προϊόν δεν υπήρχε , μου πρότειναν να πάρω το εκθεσιακό κομμάτι ,πράγμα το οποίο δεν δέχτηκα και μου είπαν να περιμένω 3 μέρες μέχρι να έρθει. Μετά απο όλη αυτή την περιπέτεια παρήγγειλα το προϊόν απο άλλο κατάστημα και ησύχασα. \r\nΝα σημειώσω οτι δέχτηκα τηλεφώνημα 4 μέρες μετά απο την εταιρία να με ρωτήσουν αν επικοινώνησε κανείς μαζί μου για το αίτημά που είχα κάνει.",
      "rating": 1.0,
      "shop_reply": null,
      "created_at": "2017-01-31T17:30:09+02:00",
      "negative": true,
      "reasons": [
        "Έλλειψη ενημέρωσης για την εξέλιξη της παραγγελίας",
        "Λανθασμένη διαθεσιμότητα",
        "Προβληματική επικοινωνία"
      ]
    },
    {
      "id": 93667,
      "user_id": 644178,
      "review": "Το παιχνιδι για την κονσολα PS4 ηρθε 2 ημερες μετα την παραγγελια. Ενημερωθηκα εγκαιρως και με ακριβεια. ++++",
      "rating": 5.0,
      "shop_reply": null,
      "created_at": "2017-02-04T17:44:03+02:00",
      "negative": false,
      "reasons": [
        "Ενημέρωση για την εξέλιξη της παραγγελίας",
        "Έγκαιρη παραλαβή",
        "Προσεγμένη συσκευασία"
      ]
    },
    {
      "id": 91511,
      "user_id": 634587,
      "review": "10 εργάσιμες το πολύ μου είπαν. 1 μήνας και μισός μέχρι τώρα χωρίς ενημέρωση και στο κατάστημα δεν βγάζω άκρη. Έβγαλαν προσφορά χωρις να υπάρχει διαθεσιμότητα . Δεν το περίμενα από μία τόσο μεγάλη αλυσίδα καταστημάτων.",
      "rating": 1.0,
      "shop_reply": null,
      "created_at": "2017-01-21T17:42:57+02:00",
      "negative": true,
      "reasons": [
        "Έλλειψη ενημέρωσης για την εξέλιξη της παραγγελίας",
        "Λανθασμένη διαθεσιμότητα",
        "Προβληματική επικοινωνία"
      ]
    }
  ],
  "meta": {
    "pagination": {
      "total_results": 492,
      "total_pages": 164,
      "page": 1,
      "per": 3
    }
  }
}