{
  "locations": [
    {
      "address": {
        "city": "\u039c\u0395\u03a4\u0391\u039c\u039f\u03a1\u03a6\u03a9\u03a3\u0397",
        "country": "\u0395\u03bb\u03bb\u03ac\u03b4\u03b1",
        "id": 2500,
        "postcode": "14452",
        "region": "\u0391\u03c4\u03c4\u03b9\u03ba\u03ae\u03c2",
        "street": "14\u03bf \u03a7\u039b\u039c \u0395\u039f \u0391\u0398\u0397\u039d\u03a9\u039d \u039b\u0391\u039c\u0399\u0391\u03a3",
        "street_number": "14"
      },
      "format": "structured",
      "full_address": "14\u03bf \u03a7\u039b\u039c \u0395\u039f \u0391\u0398\u0397\u039d\u03a9\u039d \u039b\u0391\u039c\u0399\u0391\u03a3 14, \u03a4.\u039a. 14452, \u039c\u0395\u03a4\u0391\u039c\u039f\u03a1\u03a6\u03a9\u03a3\u0397, \u0391\u03c4\u03c4\u03b9\u03ba\u03ae\u03c2",
      "headquarter": true,
      "id": 2500,
      "info": "",
      "lat": "38.062297",
      "lng": "23.75991",
      "phones": [
        "2102899999"
      ],
      "pickup_point": false,
      "store": false
    },
    {
      "address": {
        "city": "\u039d\u0395\u0391 \u0399\u03a9\u039d\u0399\u0391",
        "country": "\u0395\u03bb\u03bb\u03ac\u03b4\u03b1",
        "id": 1696,
        "postcode": "14231",
        "region": "\u0391\u03c4\u03c4\u03b9\u03ba\u03ae\u03c2",
        "street": "\u039b\u0395\u03a9\u03a6\u039f\u03a1\u039f\u03a3 \u0397\u03a1\u0391\u039a\u039b\u0395\u0399\u039f\u03a5",
        "street_number": "271"
      },
      "format": "structured",
      "full_address": "\u039b\u0395\u03a9\u03a6\u039f\u03a1\u039f\u03a3 \u0397\u03a1\u0391\u039a\u039b\u0395\u0399\u039f\u03a5 271, \u03a4.\u039a. 14231, \u039d\u0395\u0391 \u0399\u03a9\u039d\u0399\u0391, \u0391\u03c4\u03c4\u03b9\u03ba\u03ae\u03c2",
      "headquarter": false,
      "id": 1696,
      "info": "",
      "lat": "38.044771",
      "lng": "23.756156",
      "phones": [
        "2102899999"
      ],
      "pickup_point": true,
      "store": true
    }
  ],
  "meta": {
    "pagination": {
      "page": 1,
      "per": 2,
      "total_pages": 35,
      "total_results": 69
    }
  }
}
