{
  "reviews": [
    {
      "id": 155965,
      "user_id": 352028,
      "review": "Το μονο κακο με το καινουριο IOS 10 ειναι οτι τελειωνει ΠΑΡΑ ΠΟΛΥ ΓΡΗΓΟΡΑ Η ΜΠΑΤΑΡΙΑ (εγω με χρηση browse,music,youtube,facebook κτλ ... χρειαζομαι 2 φορες την ημερα φορτιση ). Κατα τ αλλα παρα πολυ καλο κινητο ! με ποιοτητα κλησης και φωτογραφιας . Αξιζει τα λεφτα του :)",
      "rating": 5,
      "created_at": "2017-02-08T21:37:46+02:00",
      "demoted": false,
      "votes_count": 4,
      "helpful_votes_count": 1,
      "voted": false,
      "flagged": false,
      "helpful": false,
      "sentiments": {
        "positive": [
          "Ποιότητα κλήσης",
          "Φωτογραφίες",
          "Καταγραφή Video",
          "GPS",
          "Ταχύτητα",
          "Σχέση ποιότητας τιμής",
          "Ανάλυση οθόνης"
        ],
        "mediocre": [
          "Μουσική"
        ]
      }
    },
    {
      "id": 154332,
      "user_id": 643457,
      "review": "Το αγορασα προχτες το κινητο απο καιζερστορε ηρθε σε 2 ημερες θεσσαλονικη σφραγισμενο ολα κομπλε !ηρθε με ios 10.1.1 και το αναβαθμησα αμεσως σε 10.2.1 και δεν εχω κανενα προβλημα η μπαταρια σχετικα με το j5 που ειχα ειναι μικροτερη αλλα οχι τοσο κακη για μενα μ εβγαλε 1 μιση ημερα με μετρια χρηση αλλα ειναι και ολοκαινουριο οπωτε βλεπουμε .. το κινητο αξιζει για οποιον θελει 4 ιντσο κινητο και δεν εχει μεγαλες απαιτησεις απο την καμερα ! Ηχος εκπλητικος !",
      "rating": 5,
      "created_at": "2017-02-03T13:53:44+02:00",
      "demoted": false,
      "votes_count": 3,
      "helpful_votes_count": 2,
      "voted": false,
      "flagged": false,
      "helpful": false,
      "sentiments": {
        "positive": [
          "Ποιότητα κλήσης",
          "Καταγραφή Video",
          "Μουσική",
          "Ταχύτητα",
          "Σχέση ποιότητας τιμής",
          "Ανάλυση οθόνης"
        ],
        "mediocre": [
          "Φωτογραφίες"
        ]
      }
    },
    {
      "id": 153790,
      "user_id": 589451,
      "review": "Το κινητό είναι παρά πολύ καλό το έχω 3 μήνες και πετάει μιλάμε ότι είναι πιο γρήγορο από κάθε άλλο κινητό που είχα το συνιστώ ανεπιφύλακτα",
      "rating": 4,
      "created_at": "2017-02-01T07:59:50+02:00",
      "demoted": false,
      "votes_count": 5,
      "helpful_votes_count": 3,
      "voted": false,
      "flagged": false,
      "helpful": false,
      "sentiments": {
        "positive": [
          "Ποιότητα κλήσης",
          "Φωτογραφίες",
          "Καταγραφή Video",
          "Μουσική",
          "Ταχύτητα",
          "Σχέση ποιότητας τιμής"
        ],
        "mediocre": [
          "GPS"
        ]
      }
    }
  ],
  "meta": {
    "pagination": {
      "total_results": 396,
      "total_pages": 132,
      "page": 1,
      "per": 3
    }
  }
}