{
  "meta": {
    "order_by_methods": {
      "pricevat": "\u0391\u03cd\u03be\u03bf\u03c5\u03c3\u03b1 \u03c4\u03b9\u03bc\u03ae",
      "rank": "\u0394\u03b7\u03bc\u03bf\u03c4\u03b9\u03ba\u03cc\u03c4\u03b7\u03c4\u03b1",
      "rating": "\u0392\u03b1\u03b8\u03bc\u03bf\u03bb\u03bf\u03b3\u03af\u03b1"
    },
    "ordered_by": "rank",
    "pagination": {
      "page": 1,
      "per": 3,
      "total_pages": 292,
      "total_results": 875
    }
  },
  "skus": [
    {
      "category_id": 40,
      "click_url": null,
      "comparable": true,
      "display_name": "Xiaomi Redmi 4x (32GB)",
      "ean": "6954176833938",
      "favorited": true,
      "first_product_shop_info": null,
      "future": false,
      "id": 11425408,
      "images": {
        "alternatives": [
          "https://a.scdn.gr/images/sku_images/016974/16974425/20170322101106_a6850db4.jpeg",
          "https://b.scdn.gr/images/sku_images/016974/16974423/20170322101106_f7a955e4.jpeg",
          "https://a.scdn.gr/images/sku_images/016974/16974424/20170322101106_ae16e57d.jpeg",
          "https://d.scdn.gr/images/sku_images/016974/16974426/20170322101106_c5774fce.jpeg"
        ],
        "main": "https://a.scdn.gr/images/sku_main_images/011425/11425408/medium_20171103170952_xiaomi_redmi_4x_32gb.jpeg"
      },
      "manufacturer_id": 15053,
      "name": "Redmi 4x (32GB)",
      "name_source": "display_name",
      "plain_spec_summary": "\u039f\u03b8\u03cc\u03bd\u03b7: 5\", RAM: 3GB, \u039c\u03bd\u03ae\u03bc\u03b7: 32GB, \u039a\u03ac\u03bc\u03b5\u03c1\u03b1: 13MP, Selfie: 5MP, \u03a0\u03c5\u03c1\u03ae\u03bd\u03b5\u03c2 CPU: 8",
      "pn": "",
      "price_max": 199.0,
      "price_min": 122.5,
      "reviewable": true,
      "reviews_count": 224,
      "reviewscore": 4.63393,
      "shop_count": 70,
      "virtual": false,
      "web_uri": "https://skroutz.gr/s/11425408/Xiaomi-Redmi-4x-32GB.html"
    },
    {
      "category_id": 40,
      "click_url": null,
      "comparable": true,
      "display_name": "Xiaomi Redmi Note 4X (Snapdragon) (32GB)",
      "ean": "",
      "favorited": true,
      "first_product_shop_info": null,
      "future": false,
      "id": 11069307,
      "images": {
        "alternatives": [
          "https://c.scdn.gr/images/sku_images/016893/16893439/20170215120328_65f7fe50.jpeg",
          "https://b.scdn.gr/images/sku_images/016893/16893440/20170215120329_99420f00.jpeg",
          "https://d.scdn.gr/images/sku_images/016893/16893438/20170215120339_297183ef.jpeg",
          "https://b.scdn.gr/images/sku_images/016893/16893441/20170215120411_543a9f26.jpeg"
        ],
        "main": "https://c.scdn.gr/images/sku_main_images/011069/11069307/medium_20170215120338_xiaomi_redmi_note_4x_32gb.jpeg"
      },
      "manufacturer_id": 15053,
      "name": "Redmi Note 4X (Snapdragon) (32GB)",
      "name_source": "display_name",
      "plain_spec_summary": "\u039f\u03b8\u03cc\u03bd\u03b7: 5.5\", RAM: 3GB, \u039c\u03bd\u03ae\u03bc\u03b7: 32GB, \u039a\u03ac\u03bc\u03b5\u03c1\u03b1: 13MP, Selfie: 5MP, \u03a0\u03c5\u03c1\u03ae\u03bd\u03b5\u03c2 CPU: 8",
      "pn": "",
      "price_max": 245.0,
      "price_min": 145.99,
      "reviewable": true,
      "reviews_count": 326,
      "reviewscore": 4.69018,
      "shop_count": 45,
      "virtual": false,
      "web_uri": "https://skroutz.gr/s/11069307/Xiaomi-Redmi-Note-4X-Snapdragon-32GB.html"
    },
    {
      "category_id": 40,
      "click_url": null,
      "comparable": true,
      "display_name": "Apple iPhone 7 (32GB)",
      "ean": "",
      "favorited": false,
      "first_product_shop_info": null,
      "future": false,
      "id": 9783213,
      "images": {
        "alternatives": [
          "https://d.scdn.gr/images/sku_images/015955/15955339/20160909151510_55657ecb.jpeg",
          "https://b.scdn.gr/images/sku_images/015955/15955297/20160909145854_6aff90d2.jpeg",
          "https://b.scdn.gr/images/sku_images/016001/16001756/20160919102250_12c8546b.jpeg",
          "https://a.scdn.gr/images/sku_images/016973/16973259/20170321165342_fb1d4099.jpeg",
          "https://a.scdn.gr/images/sku_images/016983/16983449/20170327125934_628b4f60.jpeg",
          "https://a.scdn.gr/images/sku_images/016983/16983450/20170327125934_1855d7f4.jpeg",
          "https://a.scdn.gr/images/sku_images/016001/16001762/20160919102305_0873a2b9.jpeg",
          "https://b.scdn.gr/images/sku_images/016001/16001763/20160919102307_29856255.jpeg",
          "https://c.scdn.gr/images/sku_images/016001/16001760/20160919102300_ce743850.jpeg",
          "https://d.scdn.gr/images/sku_images/016001/16001761/20160919102303_ad4f9dbf.jpeg",
          "https://c.scdn.gr/images/sku_images/016001/16001758/20160919102254_556ac96c.jpeg",
          "https://b.scdn.gr/images/sku_images/016001/16001759/20160919102257_6939c0b1.jpeg",
          "https://b.scdn.gr/images/sku_images/016001/16001764/20160919102308_40e2894b.jpeg",
          "https://c.scdn.gr/images/sku_images/016001/16001765/20160919102312_992e321d.jpeg",
          "https://a.scdn.gr/images/sku_images/016012/16012722/20160922104532_a7e80558.jpeg",
          "https://a.scdn.gr/images/sku_images/016001/16001542/20160919094848_309330fe.jpeg",
          "https://a.scdn.gr/images/sku_images/016001/16001543/20160919094854_e522671e.jpeg",
          "https://a.scdn.gr/images/sku_images/016001/16001544/20160919094854_d12c615b.jpeg",
          "https://a.scdn.gr/images/sku_images/016012/16012723/20160922104535_d7d1f5e1.jpeg",
          "https://a.scdn.gr/images/sku_images/016001/16001546/20160919094858_09a978f5.jpeg",
          "https://c.scdn.gr/images/sku_images/016001/16001547/20160919094901_bd8f1236.jpeg",
          "https://d.scdn.gr/images/sku_images/016001/16001548/20160919094905_387e1683.jpeg",
          "https://b.scdn.gr/images/sku_images/016012/16012725/20160922104541_6130d60e.jpeg",
          "https://c.scdn.gr/images/sku_images/016001/16001550/20160919094926_383f623c.jpeg",
          "https://c.scdn.gr/images/sku_images/016001/16001551/20160919094930_f36272c3.jpeg",
          "https://a.scdn.gr/images/sku_images/016001/16001552/20160919094935_36f83777.jpeg",
          "https://c.scdn.gr/images/sku_images/016012/16012724/20160922104538_a0f6cfdc.jpeg",
          "https://a.scdn.gr/images/sku_images/016001/16001678/20160919100327_bb5dc190.jpeg",
          "https://a.scdn.gr/images/sku_images/016001/16001554/20160919095011_7d0f014f.jpeg",
          "https://a.scdn.gr/images/sku_images/016001/16001555/20160919095011_759bd9c0.jpeg",
          "https://b.scdn.gr/images/sku_images/016001/16001556/20160919095013_09feb434.jpeg"
        ],
        "main": "https://c.scdn.gr/images/sku_main_images/009783/9783213/medium_20160909145853_apple_iphone_7_32gb.jpeg"
      },
      "manufacturer_id": 356,
      "name": "iPhone 7 (32GB)",
      "name_source": "display_name",
      "plain_spec_summary": "\u039f\u03b8\u03cc\u03bd\u03b7: 4.7\", RAM: 2GB, \u039c\u03bd\u03ae\u03bc\u03b7: 32GB, \u039a\u03ac\u03bc\u03b5\u03c1\u03b1: 12MP, Selfie: 7MP, \u03a0\u03c5\u03c1\u03ae\u03bd\u03b5\u03c2 CPU: 4",
      "pn": "MN902GH/A",
      "price_max": 819.0,
      "price_min": 569.79,
      "reviewable": true,
      "reviews_count": 542,
      "reviewscore": 4.71771,
      "shop_count": 66,
      "virtual": false,
      "web_uri": "https://skroutz.gr/s/9783213/Apple-iPhone-7-32GB.html"
    }
  ]
}
