{
  "meta": {
    "ordered_by": "price",
    "pagination": {
      "page": 1,
      "per": 4,
      "total_pages": 80,
      "total_results": 317
    }
  },
  "skus": [
    {
      "category_id": 40,
      "click_url": null,
      "display_name": "Oukitel C1 (4GB)",
      "ean": "",
      "favorited": false,
      "first_product_shop_info": null,
      "future": false,
      "id": 9126201,
      "images": {
        "alternatives": [
          "https://c.scdn.gr/images/sku_images/014961/14961484/20160530143151_b9d4b5bb.jpeg",
          "https://c.scdn.gr/images/sku_images/014961/14961482/20160530143150_3f60eae8.jpeg",
          "https://d.scdn.gr/images/sku_images/014961/14961483/20160530143151_653ea04f.jpeg",
          "https://a.scdn.gr/images/sku_images/014961/14961485/20160530143156_b8d713b9.jpeg",
          "https://b.scdn.gr/images/sku_images/014961/14961487/20160530143159_e4e75000.jpeg",
          "https://c.scdn.gr/images/sku_images/014961/14961486/20160530143159_79cf8029.jpeg"
        ],
        "main": "https://c.scdn.gr/images/sku_main_images/009126/9126201/medium_20160530143152_oukitel_c1_4gb.jpeg"
      },
      "manufacturer_id": 26414,
      "name": "C1 (4GB)",
      "plain_spec_summary": "SmartPhone, SIM: Dual, \u039f\u03b8\u03cc\u03bd\u03b7: 4\", 800 x 480 pixels, CPU: 1200 MHz, \u03a0\u03c5\u03c1\u03ae\u03bd\u03b5\u03c2 CPU: 4, RAM: 514 MB, \u039c\u03bd\u03ae\u03bc\u03b7 \u0391\u03c0\u03bf\u03b8\u03ae\u03ba\u03b5\u03c5\u03c3\u03b7\u03c2: 4 GB, \u0394\u03af\u03ba\u03c4\u03c5\u03bf: 3G, \u039a\u03ac\u03bc\u03b5\u03c1\u03b1: 2 MP, \u039b\u03b5\u03b9\u03c4\u03bf\u03c5\u03c1\u03b3\u03b9\u03ba\u03cc: Android, \u039c\u03c0\u03b1\u03c4\u03b1\u03c1\u03af\u03b1: 1500 mAh",
      "pn": "C1-WH C1-BK",
      "price_max": 49.9,
      "price_min": 41.2,
      "reviews_count": 0,
      "reviewscore": 0.0,
      "shop_count": 11,
      "virtual": false,
      "web_uri": "https://www.skroutz.gr/s/9126201/Oukitel-C1-4GB.html"
    },
    {
      "category_id": 40,
      "click_url": null,
      "display_name": "ZTE Blade L110 (8GB)",
      "ean": "",
      "favorited": false,
      "first_product_shop_info": null,
      "future": false,
      "id": 9542574,
      "images": {
        "alternatives": [
          "https://b.scdn.gr/images/sku_images/015749/15749558/20160804134626_228fc52b.jpeg",
          "https://d.scdn.gr/images/sku_images/015749/15749559/20160804134638_9e77f22e.jpeg"
        ],
        "main": "https://c.scdn.gr/images/sku_main_images/009542/9542574/medium_20160804134631_zte_blade_l110_4gb.jpeg"
      },
      "manufacturer_id": 4834,
      "name": "Blade L110 (8GB)",
      "plain_spec_summary": "SmartPhone, SIM: Dual, \u039f\u03b8\u03cc\u03bd\u03b7: 4\", 800 x 480 pixels, CPU: 1300 MHz, \u03a0\u03c5\u03c1\u03ae\u03bd\u03b5\u03c2 CPU: 4, RAM: 1 GB, \u039c\u03bd\u03ae\u03bc\u03b7 \u0391\u03c0\u03bf\u03b8\u03ae\u03ba\u03b5\u03c5\u03c3\u03b7\u03c2: 8 GB, \u0394\u03af\u03ba\u03c4\u03c5\u03bf: 3G, \u039a\u03ac\u03bc\u03b5\u03c1\u03b1: 5 MP, \u039b\u03b5\u03b9\u03c4\u03bf\u03c5\u03c1\u03b3\u03b9\u03ba\u03cc: Android, \u039c\u03c0\u03b1\u03c4\u03b1\u03c1\u03af\u03b1: 1400 mAh",
      "pn": "L110",
      "price_max": 65.0,
      "price_min": 48.79,
      "reviews_count": 3,
      "reviewscore": 4.0,
      "shop_count": 8,
      "virtual": false,
      "web_uri": "https://www.skroutz.gr/s/9542574/ZTE-Blade-L110-8GB.html"
    },
    {
      "category_id": 40,
      "click_url": null,
      "display_name": "Leagoo Z1 (4GB)",
      "ean": "",
      "favorited": false,
      "first_product_shop_info": "2612|Deltabox|deltabox",
      "future": false,
      "id": 9034860,
      "images": {
        "alternatives": [
          "https://c.scdn.gr/images/sku_images/014954/14954727/20160517113228_5d5bcfca.jpeg",
          "https://b.scdn.gr/images/sku_images/014954/14954728/20160517113230_d5b80619.jpeg",
          "https://a.scdn.gr/images/sku_images/014954/14954729/20160517113235_edeb1a9c.jpeg",
          "https://a.scdn.gr/images/sku_images/014954/14954731/20160517113236_8c6a65db.jpeg",
          "https://d.scdn.gr/images/sku_images/014954/14954730/20160517113235_34657f6b.jpeg",
          "https://a.scdn.gr/images/sku_images/014954/14954732/20160517113240_d6d93c04.jpeg"
        ],
        "main": "https://d.scdn.gr/images/sku_main_images/009034/9034860/medium_20160517113226_leagoo_z1_4gb.jpeg"
      },
      "manufacturer_id": 17153,
      "name": "Z1 (4GB)",
      "plain_spec_summary": "SmartPhone, SIM: Dual, \u039f\u03b8\u03cc\u03bd\u03b7: 3.97\", 800 x 480 pixels, CPU: 1300 MHz, \u03a0\u03c5\u03c1\u03ae\u03bd\u03b5\u03c2 CPU: 4, RAM: 512 MB, \u039c\u03bd\u03ae\u03bc\u03b7 \u0391\u03c0\u03bf\u03b8\u03ae\u03ba\u03b5\u03c5\u03c3\u03b7\u03c2: 4 GB, \u0394\u03af\u03ba\u03c4\u03c5\u03bf: 3G, \u039a\u03ac\u03bc\u03b5\u03c1\u03b1: 3 MP, \u039b\u03b5\u03b9\u03c4\u03bf\u03c5\u03c1\u03b3\u03b9\u03ba\u03cc: Android, \u039c\u03c0\u03b1\u03c4\u03b1\u03c1\u03af\u03b1: 1400 mAh",
      "pn": "",
      "price_max": 49.99,
      "price_min": 49.99,
      "reviews_count": 1,
      "reviewscore": 5.0,
      "shop_count": 1,
      "virtual": false,
      "web_uri": "https://www.skroutz.gr/s/9034860/Leagoo-Z1-4GB.html"
    },
    {
      "category_id": 40,
      "click_url": null,
      "display_name": "Alcatel OneTouch Pixi 4 (4) (4GB)",
      "ean": "",
      "favorited": false,
      "first_product_shop_info": null,
      "future": false,
      "id": 9981614,
      "images": {
        "alternatives": [
          "https://a.scdn.gr/images/sku_images/016044/16044945/20160929115004_43e75a87.jpeg",
          "https://b.scdn.gr/images/sku_images/016044/16044943/20160929115003_7e7f1c19.jpeg",
          "https://c.scdn.gr/images/sku_images/016044/16044944/20160929115003_5e9954a5.jpeg",
          "https://c.scdn.gr/images/sku_images/016044/16044946/20160929115004_3972360b.jpeg",
          "https://a.scdn.gr/images/sku_images/016044/16044947/20160929115005_fac3c512.jpeg"
        ],
        "main": "https://a.scdn.gr/images/sku_main_images/009981/9981614/medium_20160929115001_alcatel_onetouch_pixi_4_4_4gb.jpeg"
      },
      "manufacturer_id": 417,
      "name": "OneTouch Pixi 4 (4) (4GB)",
      "plain_spec_summary": "SmartPhone, SIM: Dual, \u039f\u03b8\u03cc\u03bd\u03b7: 4.0\", 800 x 480 pixels, CPU: 1300 MHz, \u03a0\u03c5\u03c1\u03ae\u03bd\u03b5\u03c2 CPU: 4, RAM: 512 MB, \u039c\u03bd\u03ae\u03bc\u03b7 \u0391\u03c0\u03bf\u03b8\u03ae\u03ba\u03b5\u03c5\u03c3\u03b7\u03c2: 4 GB, \u0394\u03af\u03ba\u03c4\u03c5\u03bf: 3G, \u039a\u03ac\u03bc\u03b5\u03c1\u03b1: 2.0 MP, \u039b\u03b5\u03b9\u03c4\u03bf\u03c5\u03c1\u03b3\u03b9\u03ba\u03cc: Android, \u039c\u03c0\u03b1\u03c4\u03b1\u03c1\u03af\u03b1: 1500 mAh",
      "pn": "4034D",
      "price_max": 54.0,
      "price_min": 52.9,
      "reviews_count": 0,
      "reviewscore": 0.0,
      "shop_count": 2,
      "virtual": false,
      "web_uri": "https://www.skroutz.gr/s/9981614/Alcatel-OneTouch-Pixi-4-4-4GB.html"
    }
  ]
}
